# Fdb version 3
["pdflatex"] 1676297605 "/Users/villardp/GitLab/cours/webgl/Exercices/sujetWebGL/TDTPwebGL.tex" "/Users/villardp/GitLab/cours/webgl/Exercices/sujetWebGL/TDTPwebGL.pdf" "TDTPwebGL" 1737975115
  "../../WebGL_files/images/int7.png" 1470213588 39998 78261f8800e9cebdd5862a1f2fa151f6 ""
  "/Users/villardp/GitLab/cours/webgl/Exercices/sujetWebGL/TDTPwebGL.aux" 1706802905 6401 c7d24acc956e1511ee824e55da7920de ""
  "/Users/villardp/GitLab/cours/webgl/Exercices/sujetWebGL/TDTPwebGL.tex" 1737975053 74288 79cc47a2ae9ace7a8f206ca06654a6ec ""
  "/dev/null" 1737975115 0 d41d8cd98f00b204e9800998ecf8427e ""
  "/usr/local/texlive/2019/texmf-dist/fonts/enc/dvips/base/8r.enc" 1165713224 4850 80dc9bab7f31fb78a000ccfed0e27cab ""
  "/usr/local/texlive/2019/texmf-dist/fonts/enc/dvips/kpfonts/kpfonts-expert.enc" 1240420913 2639 b7bbeb66c016cde6fdcad9263fe54a4a ""
  "/usr/local/texlive/2019/texmf-dist/fonts/map/fontname/texfonts.map" 1511824771 3332 103109f5612ad95229751940c61aada0 ""
  "/usr/local/texlive/2019/texmf-dist/fonts/tfm/public/cm/cmr10.tfm" 1136768653 1296 45809c5a464d5f32c8f98ba97c1bb47f ""
  "/usr/local/texlive/2019/texmf-dist/fonts/tfm/public/kpfonts/jkpbn7t.tfm" 1240420913 4168 1cc01518218b768b26664ac8264a1dfa ""
  "/usr/local/texlive/2019/texmf-dist/fonts/tfm/public/kpfonts/jkpbn8r.tfm" 1240420913 1704 3498d78dbc645488e6991702d2fcd9f1 ""
  "/usr/local/texlive/2019/texmf-dist/fonts/tfm/public/kpfonts/jkpbne.tfm" 1240420913 1476 e4f5cafc64b9daf0d44d4aebfd40a855 ""
  "/usr/local/texlive/2019/texmf-dist/fonts/tfm/public/kpfonts/jkpex.tfm" 1268268695 1420 916081528bdeafb19bca325e7b18bd9e ""
  "/usr/local/texlive/2019/texmf-dist/fonts/tfm/public/kpfonts/jkpexa.tfm" 1240420913 1296 db149dfb5b2371c6e3d282e2f4424eaf ""
  "/usr/local/texlive/2019/texmf-dist/fonts/tfm/public/kpfonts/jkpmi.tfm" 1268268695 2392 1ee08a0b7a0370405809b47b71fb21cc ""
  "/usr/local/texlive/2019/texmf-dist/fonts/tfm/public/kpfonts/jkpmia.tfm" 1268268695 1612 9a32a530da503a405d14b95b5156c033 ""
  "/usr/local/texlive/2019/texmf-dist/fonts/tfm/public/kpfonts/jkpmit7t.tfm" 1240420913 3960 414eb8c5a75c203c7cceb1bdeb1103b3 ""
  "/usr/local/texlive/2019/texmf-dist/fonts/tfm/public/kpfonts/jkpmit8r.tfm" 1240420913 1780 c364372d22986d8083e32d38d690691b ""
  "/usr/local/texlive/2019/texmf-dist/fonts/tfm/public/kpfonts/jkpmite.tfm" 1240420913 1572 a7ac5688fb5d5ec69856c07a91827f5c ""
  "/usr/local/texlive/2019/texmf-dist/fonts/tfm/public/kpfonts/jkpmn7t.tfm" 1240420913 4124 99bbc9c09bed751cdc245db4fb9644ff ""
  "/usr/local/texlive/2019/texmf-dist/fonts/tfm/public/kpfonts/jkpmn8r.tfm" 1240420913 1728 01ec3b6a814daf3492bb99c6bf6dcf8d ""
  "/usr/local/texlive/2019/texmf-dist/fonts/tfm/public/kpfonts/jkpmne.tfm" 1240420913 1492 3cce7d7b67660bfd355425290695c6a6 ""
  "/usr/local/texlive/2019/texmf-dist/fonts/tfm/public/kpfonts/jkpmsc7t.tfm" 1240420913 4220 f0ad94582042015a892a219db27def07 ""
  "/usr/local/texlive/2019/texmf-dist/fonts/tfm/public/kpfonts/jkpmsc8r.tfm" 1240420913 1704 6f2239b6d45e3a0a0ec92fd8286c5d81 ""
  "/usr/local/texlive/2019/texmf-dist/fonts/tfm/public/kpfonts/jkpmsce.tfm" 1240420913 1428 b55a244ab96dffd28471fb415b3ad4f0 ""
  "/usr/local/texlive/2019/texmf-dist/fonts/tfm/public/kpfonts/jkpssbn7t.tfm" 1240420913 3884 8250d171a5d4a1b4445977e414035558 ""
  "/usr/local/texlive/2019/texmf-dist/fonts/tfm/public/kpfonts/jkpssbsc7t.tfm" 1240420913 3980 dde9ad9a60c98a80ce5b839413f89973 ""
  "/usr/local/texlive/2019/texmf-dist/fonts/tfm/public/kpfonts/jkpssbsc8r.tfm" 1240420913 1716 c273e100bfe02d36baf09a2583707f6d ""
  "/usr/local/texlive/2019/texmf-dist/fonts/tfm/public/kpfonts/jkpssbsce.tfm" 1240420913 1396 04414e89e3089087475cf60d14b85d2f ""
  "/usr/local/texlive/2019/texmf-dist/fonts/tfm/public/kpfonts/jkpssmn7t.tfm" 1240420913 3764 47434c5c38d17b52228b511d9037b029 ""
  "/usr/local/texlive/2019/texmf-dist/fonts/tfm/public/kpfonts/jkpsy.tfm" 1240420913 1324 37a02294e3708c32520057020841c334 ""
  "/usr/local/texlive/2019/texmf-dist/fonts/tfm/public/kpfonts/jkpsya.tfm" 1240420913 904 5199e8f7fac33693a2cdafbe614fdb21 ""
  "/usr/local/texlive/2019/texmf-dist/fonts/tfm/public/kpfonts/jkpsyb.tfm" 1268268695 1104 e59328e827916b7ec83ae1a5950a6a4d ""
  "/usr/local/texlive/2019/texmf-dist/fonts/tfm/public/kpfonts/jkpsyc.tfm" 1240420913 1028 a2825e2c40d04ba8c0af3998464d86e1 ""
  "/usr/local/texlive/2019/texmf-dist/fonts/tfm/public/kpfonts/jkpttbn7t.tfm" 1240420913 956 6662d24b5c598e882998efb9b70374e8 ""
  "/usr/local/texlive/2019/texmf-dist/fonts/tfm/public/kpfonts/jkpttbn8r.tfm" 1240420913 1260 d6fba5dbf95f1bb5ff92b42def221a47 ""
  "/usr/local/texlive/2019/texmf-dist/fonts/tfm/public/kpfonts/jkpttbne.tfm" 1240420913 1208 d36279ceca799654b1283658b0f49b3d ""
  "/usr/local/texlive/2019/texmf-dist/fonts/tfm/public/kpfonts/jkpttmn7t.tfm" 1240420913 956 358caa85cce4717dc131d9943e141e2a ""
  "/usr/local/texlive/2019/texmf-dist/fonts/tfm/public/kpfonts/jkpttmn8r.tfm" 1240420913 1260 fd61ad79456aa267078b3d91d3fd9a50 ""
  "/usr/local/texlive/2019/texmf-dist/fonts/tfm/public/kpfonts/jkpttmne.tfm" 1240420913 1208 64d9ff6faba311f1b1b268db95c6ee67 ""
  "/usr/local/texlive/2019/texmf-dist/fonts/type1/public/kpfonts/jkpbn8a.pfb" 1240420913 32613 389be7e28026f4a9ed02e6bc2426509b ""
  "/usr/local/texlive/2019/texmf-dist/fonts/type1/public/kpfonts/jkpbne.pfb" 1240420913 18279 7aad9c053b21deb6ce3ea35c2cdb90d0 ""
  "/usr/local/texlive/2019/texmf-dist/fonts/type1/public/kpfonts/jkpex.pfb" 1268268695 26063 d0c01419499cfc86ce6e24338c9c47c4 ""
  "/usr/local/texlive/2019/texmf-dist/fonts/type1/public/kpfonts/jkpmi.pfb" 1268268695 29813 d05f8d6ea0d8afa920af22dddafc33f2 ""
  "/usr/local/texlive/2019/texmf-dist/fonts/type1/public/kpfonts/jkpmit8a.pfb" 1268268695 37692 ff65f49f493de879aca846e1811bfa1f ""
  "/usr/local/texlive/2019/texmf-dist/fonts/type1/public/kpfonts/jkpmn8a.pfb" 1240420913 35294 e88bb6b7bdd82f594dee041ddea9423c ""
  "/usr/local/texlive/2019/texmf-dist/fonts/type1/public/kpfonts/jkpmne.pfb" 1240420913 18013 a3754f8df0b4dd3a76b5353fabb31650 ""
  "/usr/local/texlive/2019/texmf-dist/fonts/type1/public/kpfonts/jkpmsc8a.pfb" 1240420913 35145 c0d7a82f6be81407f39e1a6922b63148 ""
  "/usr/local/texlive/2019/texmf-dist/fonts/type1/public/kpfonts/jkpssbsc8a.pfb" 1240420913 26055 8651d59881b3f3a96f8f0cb34b2696ee ""
  "/usr/local/texlive/2019/texmf-dist/fonts/type1/public/kpfonts/jkpsy.pfb" 1201048802 25860 1e4d17fc7bf1d0b47e9b47e6099f1971 ""
  "/usr/local/texlive/2019/texmf-dist/fonts/type1/public/kpfonts/jkpttbn8a.pfb" 1240420913 29104 7d3a95661c0712ce2fe07707913da04e ""
  "/usr/local/texlive/2019/texmf-dist/fonts/type1/public/kpfonts/jkpttmn8a.pfb" 1240420913 29290 5f42ab27c55cdf1c35d41e42b8861898 ""
  "/usr/local/texlive/2019/texmf-dist/fonts/vf/public/kpfonts/jkpbn7t.vf" 1240420913 984 cb10e437de92fc0b8181a6322b62c9aa ""
  "/usr/local/texlive/2019/texmf-dist/fonts/vf/public/kpfonts/jkpmit7t.vf" 1240420913 988 c5856e737f2ded6ac9fd6b4b9c4edaf8 ""
  "/usr/local/texlive/2019/texmf-dist/fonts/vf/public/kpfonts/jkpmn7t.vf" 1240420913 984 276aff85044bc68260a465c2ce58c070 ""
  "/usr/local/texlive/2019/texmf-dist/fonts/vf/public/kpfonts/jkpmsc7t.vf" 1240420913 976 feeb42b10332287f3c08710ea5ccaa95 ""
  "/usr/local/texlive/2019/texmf-dist/fonts/vf/public/kpfonts/jkpssbsc7t.vf" 1240420913 980 c988a2f9328c2f590d83192097d2e92d ""
  "/usr/local/texlive/2019/texmf-dist/fonts/vf/public/kpfonts/jkpttbn7t.vf" 1240420913 972 448369607df5631cbec84b6c97e52f71 ""
  "/usr/local/texlive/2019/texmf-dist/fonts/vf/public/kpfonts/jkpttmn7t.vf" 1240420913 972 ced53eb992de4243ecbd28cd4227c4c3 ""
  "/usr/local/texlive/2019/texmf-dist/tex/context/base/mkii/supp-pdf.mkii" 1461363279 71627 94eb9990bed73c364d7f53f960cc8c5b ""
  "/usr/local/texlive/2019/texmf-dist/tex/generic/babel-french/french.ldf" 1554239484 67761 0a9fd69cc4fb4808b91419646d42b923 ""
  "/usr/local/texlive/2019/texmf-dist/tex/generic/babel/babel.def" 1557004175 78303 c54368864528e704f6f347e670e631cd ""
  "/usr/local/texlive/2019/texmf-dist/tex/generic/babel/babel.sty" 1557004175 17694 218403ecedc79eb72e8ecde7bc3b3f87 ""
  "/usr/local/texlive/2019/texmf-dist/tex/generic/babel/switch.def" 1557004175 14454 24b05ffde1fce7ca761904a613e8ce1f ""
  "/usr/local/texlive/2019/texmf-dist/tex/generic/babel/txtbabel.def" 1554327732 7435 ef73091c345c1e2e85b0f9a441eb1f7d ""
  "/usr/local/texlive/2019/texmf-dist/tex/generic/ifxetex/ifxetex.sty" 1284331290 1458 43ab4710dc82f3edeabecd0d099626b2 ""
  "/usr/local/texlive/2019/texmf-dist/tex/generic/oberdiek/gettitlestring.sty" 1463608860 8237 3b62ef1f7e2c23a328c814b3893bc11f ""
  "/usr/local/texlive/2019/texmf-dist/tex/generic/oberdiek/hobsub-generic.sty" 1536701967 185392 b99a6d53180e04300c35e18725f31231 ""
  "/usr/local/texlive/2019/texmf-dist/tex/generic/oberdiek/hobsub-hyperref.sty" 1465595255 70864 bcd5b216757bd619ae692a151d90085d ""
  "/usr/local/texlive/2019/texmf-dist/tex/generic/oberdiek/ifpdf.sty" 1536443070 1300 96620a7d94bc0ceb261d968770ce8315 ""
  "/usr/local/texlive/2019/texmf-dist/tex/generic/oberdiek/ifvtex.sty" 1463608860 6797 90b7f83b0ad46826bc16058b1e3d48df ""
  "/usr/local/texlive/2019/texmf-dist/tex/generic/oberdiek/stringenc.sty" 1463608860 21411 4c6135fd98dd4f5499becbfc9a323deb ""
  "/usr/local/texlive/2019/texmf-dist/tex/generic/pgf/basiclayer/pgfcore.code.tex" 1546728038 969 03f6c464fd951d8725b3a4959f4c6de0 ""
  "/usr/local/texlive/2019/texmf-dist/tex/generic/pgf/basiclayer/pgfcorearrows.code.tex" 1546728038 43820 bc6cf5aa959817914ace33f5c6232161 ""
  "/usr/local/texlive/2019/texmf-dist/tex/generic/pgf/basiclayer/pgfcoreexternal.code.tex" 1557092330 19324 c9a64402f22bd8d81821141a357af653 ""
  "/usr/local/texlive/2019/texmf-dist/tex/generic/pgf/basiclayer/pgfcoregraphicstate.code.tex" 1546728038 6038 d639d02574be9a72f3c602c2a3510e02 ""
  "/usr/local/texlive/2019/texmf-dist/tex/generic/pgf/basiclayer/pgfcoreimage.code.tex" 1546728038 6948 284bbe3c9a7ca0a826c1c03895e69b9f ""
  "/usr/local/texlive/2019/texmf-dist/tex/generic/pgf/basiclayer/pgfcorelayers.code.tex" 1546728038 4883 a6f3eb1f71d8c4affaf43a169828b043 ""
  "/usr/local/texlive/2019/texmf-dist/tex/generic/pgf/basiclayer/pgfcoreobjects.code.tex" 1546728038 2544 3b1b198fd49f01e328adc9162a07b213 ""
  "/usr/local/texlive/2019/texmf-dist/tex/generic/pgf/basiclayer/pgfcorepathconstruct.code.tex" 1546728038 44195 134d5eb267e64d2a6b6dc75008e7c5fd ""
  "/usr/local/texlive/2019/texmf-dist/tex/generic/pgf/basiclayer/pgfcorepathprocessing.code.tex" 1546728038 17311 3092579be20ef0f229c42ad3f09da85c ""
  "/usr/local/texlive/2019/texmf-dist/tex/generic/pgf/basiclayer/pgfcorepathusage.code.tex" 1546728038 21302 d6c4b340248adbe650ebf6ca76bdccca ""
  "/usr/local/texlive/2019/texmf-dist/tex/generic/pgf/basiclayer/pgfcorepatterns.code.tex" 1546728038 9541 9d1ee06aeaf948a30f150e450eb2d944 ""
  "/usr/local/texlive/2019/texmf-dist/tex/generic/pgf/basiclayer/pgfcorepoints.code.tex" 1557092330 33356 19ca73d4aa24857120b230a5d06f6b4c ""
  "/usr/local/texlive/2019/texmf-dist/tex/generic/pgf/basiclayer/pgfcorequick.code.tex" 1546728038 2965 502761b60f43ab2de5ecb2f4625163ae ""
  "/usr/local/texlive/2019/texmf-dist/tex/generic/pgf/basiclayer/pgfcorerdf.code.tex" 1546728038 5196 f8c5c775d4d6e2cb050392127cabda72 ""
  "/usr/local/texlive/2019/texmf-dist/tex/generic/pgf/basiclayer/pgfcorescopes.code.tex" 1557092330 20817 1763e1bd1795e073004fa1b1d2d3a6ff ""
  "/usr/local/texlive/2019/texmf-dist/tex/generic/pgf/basiclayer/pgfcoreshade.code.tex" 1557092330 23633 7f8db199ac2ca8f3c6b168005e7899a6 ""
  "/usr/local/texlive/2019/texmf-dist/tex/generic/pgf/basiclayer/pgfcoretransformations.code.tex" 1546728038 21989 266e83c51fe41eb8b8d5e6896dc71cc1 ""
  "/usr/local/texlive/2019/texmf-dist/tex/generic/pgf/basiclayer/pgfcoretransparency.code.tex" 1546728038 8842 5cc856e132fac404805c6da091779283 ""
  "/usr/local/texlive/2019/texmf-dist/tex/generic/pgf/frontendlayer/tikz/libraries/tikzlibraryfadings.code.tex" 1546728038 1179 bb12be2a349da04542eb1820d6ef2546 ""
  "/usr/local/texlive/2019/texmf-dist/tex/generic/pgf/frontendlayer/tikz/libraries/tikzlibrarytopaths.code.tex" 1546728038 11605 3cfbfe82478675de992de878ae30cba4 ""
  "/usr/local/texlive/2019/texmf-dist/tex/generic/pgf/frontendlayer/tikz/tikz.code.tex" 1557092330 184062 a6b2d8312f7efd5877ebedbd98dd55c1 ""
  "/usr/local/texlive/2019/texmf-dist/tex/generic/pgf/libraries/pgflibraryfadings.code.tex" 1546728038 2563 97c355d55617296f2e7ef7030bada827 ""
  "/usr/local/texlive/2019/texmf-dist/tex/generic/pgf/libraries/pgflibraryplothandlers.code.tex" 1546728038 32995 a4d54c043ae5274ceaaddeb36ad43a6f ""
  "/usr/local/texlive/2019/texmf-dist/tex/generic/pgf/math/pgfmath.code.tex" 1557092330 521 c70cf6ad609de83a27ee7929eb356332 ""
  "/usr/local/texlive/2019/texmf-dist/tex/generic/pgf/math/pgfmathcalc.code.tex" 1557092330 13391 933cab19c6d27039dbfc487330d1005a ""
  "/usr/local/texlive/2019/texmf-dist/tex/generic/pgf/math/pgfmathfloat.code.tex" 1557092330 104938 15f2d8bdabd6bf9ca70f62cd8e3d4940 ""
  "/usr/local/texlive/2019/texmf-dist/tex/generic/pgf/math/pgfmathfunctions.base.code.tex" 1557092330 10157 218d58ab074e5bd0d027de45ec64cc00 ""
  "/usr/local/texlive/2019/texmf-dist/tex/generic/pgf/math/pgfmathfunctions.basic.code.tex" 1557092330 28177 7c47c337a1d5dbef1983ad718b752780 ""
  "/usr/local/texlive/2019/texmf-dist/tex/generic/pgf/math/pgfmathfunctions.code.tex" 1557092330 9191 47b66ae56123e441ad9b781149e62b61 ""
  "/usr/local/texlive/2019/texmf-dist/tex/generic/pgf/math/pgfmathfunctions.comparison.code.tex" 1557092330 3865 cddf7ddc80f018587c55afdcc79fc333 ""
  "/usr/local/texlive/2019/texmf-dist/tex/generic/pgf/math/pgfmathfunctions.integerarithmetics.code.tex" 1557092330 3177 27d85c44fbfe09ff3b2cf2879e3ea434 ""
  "/usr/local/texlive/2019/texmf-dist/tex/generic/pgf/math/pgfmathfunctions.misc.code.tex" 1557092330 10925 df50b8a6e5660a585e3a2bf55726dcc8 ""
  "/usr/local/texlive/2019/texmf-dist/tex/generic/pgf/math/pgfmathfunctions.random.code.tex" 1557092330 7757 7705f3e11ccd6e3eb3ad082230465f1a ""
  "/usr/local/texlive/2019/texmf-dist/tex/generic/pgf/math/pgfmathfunctions.round.code.tex" 1557092330 3379 cbd0948a550bd7a495a160ca6beee9ed ""
  "/usr/local/texlive/2019/texmf-dist/tex/generic/pgf/math/pgfmathfunctions.trigonometric.code.tex" 1557092330 92405 bba89470858d7b0788a9c09331c39653 ""
  "/usr/local/texlive/2019/texmf-dist/tex/generic/pgf/math/pgfmathparser.code.tex" 1557092330 36369 b9fc998228b00ac0e98c7a5cc552e6f2 ""
  "/usr/local/texlive/2019/texmf-dist/tex/generic/pgf/math/pgfmathutil.code.tex" 1557092330 7431 af3d75e118d051d25f998b340bda2432 ""
  "/usr/local/texlive/2019/texmf-dist/tex/generic/pgf/modules/pgfmodulematrix.code.tex" 1557092330 20905 32f5da2d6cf180962acc32cfde9fb2bc ""
  "/usr/local/texlive/2019/texmf-dist/tex/generic/pgf/modules/pgfmoduleplot.code.tex" 1557092330 16121 9e240115374a8d489f2f786115df83a9 ""
  "/usr/local/texlive/2019/texmf-dist/tex/generic/pgf/modules/pgfmoduleshapes.code.tex" 1557092330 43313 34802317aa5ec625495eb059ee22dac1 ""
  "/usr/local/texlive/2019/texmf-dist/tex/generic/pgf/pgf.revision.tex" 1557092330 463 c46c7c3cfa252697c376a7f3b9edf4e1 ""
  "/usr/local/texlive/2019/texmf-dist/tex/generic/pgf/systemlayer/pgf.cfg" 1557092330 926 70ff613fabeb70f5d1673dc0c93987bd ""
  "/usr/local/texlive/2019/texmf-dist/tex/generic/pgf/systemlayer/pgfsys-common-pdf.def" 1557092330 5546 3586827e6032c95512b2a6682d2979a3 ""
  "/usr/local/texlive/2019/texmf-dist/tex/generic/pgf/systemlayer/pgfsys-pdftex.def" 1557092330 13604 c814ee30f2c783aac5aa5f1fa9bd5d8f ""
  "/usr/local/texlive/2019/texmf-dist/tex/generic/pgf/systemlayer/pgfsys.code.tex" 1557092330 60235 95c0c3ec344c91e1862f00113848c7fd ""
  "/usr/local/texlive/2019/texmf-dist/tex/generic/pgf/systemlayer/pgfsysprotocol.code.tex" 1557092330 1896 82c274ff520f9e450ccea4e3ef4edc12 ""
  "/usr/local/texlive/2019/texmf-dist/tex/generic/pgf/systemlayer/pgfsyssoftpath.code.tex" 1557092330 7778 a25a32a10ca820357491d4c7b3ac02ea ""
  "/usr/local/texlive/2019/texmf-dist/tex/generic/pgf/utilities/pgffor.code.tex" 1557092330 23747 e2b4752cd808d28181c87a5a827014a7 ""
  "/usr/local/texlive/2019/texmf-dist/tex/generic/pgf/utilities/pgfkeys.code.tex" 1557092330 36444 cdc8278aa457606d7592c10e8ba76822 ""
  "/usr/local/texlive/2019/texmf-dist/tex/generic/pgf/utilities/pgfkeysfiltered.code.tex" 1557092330 37552 0e8604fe25a87d19012c76fcfb85271c ""
  "/usr/local/texlive/2019/texmf-dist/tex/generic/pgf/utilities/pgfrcs.code.tex" 1557092330 4197 7d1ede1330228937d4e18809b2ca0e1f ""
  "/usr/local/texlive/2019/texmf-dist/tex/generic/pgf/utilities/pgfutil-common-lists.tex" 1557092330 7250 03b2b9fb5fa38e7ca5cc3c45860fb210 ""
  "/usr/local/texlive/2019/texmf-dist/tex/generic/pgf/utilities/pgfutil-common.tex" 1557092330 26759 caa1a6483e91bb5d06dda1802f7a6f32 ""
  "/usr/local/texlive/2019/texmf-dist/tex/generic/pgf/utilities/pgfutil-latex.def" 1557092330 6162 fdfa536d094720cfb975ddffdc71c331 ""
  "/usr/local/texlive/2019/texmf-dist/tex/generic/unicode-data/UnicodeData.txt" 1552169639 1797715 6221effa1dd15524745a467f7366233d ""
  "/usr/local/texlive/2019/texmf-dist/tex/latex/amsfonts/amsfonts.sty" 1359763108 5949 3f3fd50a8cc94c3d4cbf4fc66cd3df1c ""
  "/usr/local/texlive/2019/texmf-dist/tex/latex/amsfonts/amssymb.sty" 1359763108 13829 94730e64147574077f8ecfea9bb69af4 ""
  "/usr/local/texlive/2019/texmf-dist/tex/latex/amsmath/amsbsy.sty" 1523134290 2211 ca7ce284ab93c8eecdc6029dc5ccbd73 ""
  "/usr/local/texlive/2019/texmf-dist/tex/latex/amsmath/amsgen.sty" 1523134290 4161 7f6eb9092061a11f87d08ed13515b48d ""
  "/usr/local/texlive/2019/texmf-dist/tex/latex/amsmath/amsmath.sty" 1544567569 85093 77cfa18ddbae4d9b74ade33d843686d3 ""
  "/usr/local/texlive/2019/texmf-dist/tex/latex/amsmath/amsopn.sty" 1523134290 4116 32e6abd27229755a83a8b7f18e583890 ""
  "/usr/local/texlive/2019/texmf-dist/tex/latex/amsmath/amstext.sty" 1523134290 2432 8ff93b1137020e8f21930562a874ae66 ""
  "/usr/local/texlive/2019/texmf-dist/tex/latex/base/bk11.clo" 1544567569 8149 7428df8dbbd3f8a36fcd6e3518d27515 ""
  "/usr/local/texlive/2019/texmf-dist/tex/latex/base/book.cls" 1544567569 23057 c530077dc0c87c9ab73e8388f54f2c23 ""
  "/usr/local/texlive/2019/texmf-dist/tex/latex/base/ifthen.sty" 1523050425 5161 c004ea5a189d4bdcf42e86754ad75a58 ""
  "/usr/local/texlive/2019/texmf-dist/tex/latex/base/inputenc.sty" 1544567569 5052 b64c57f4a38aae0d2745f8298fa50814 ""
  "/usr/local/texlive/2019/texmf-dist/tex/latex/base/textcomp.sty" 1544567569 16156 a293f9cfd4f8552bb5d1028389f53e72 ""
  "/usr/local/texlive/2019/texmf-dist/tex/latex/base/ts1cmr.fd" 1523050425 2433 cdefd2509a12ba58001f2024f63aae9a ""
  "/usr/local/texlive/2019/texmf-dist/tex/latex/base/ts1enc.def" 1523050425 7769 97b639552068544f7c98d557abb19f41 ""
  "/usr/local/texlive/2019/texmf-dist/tex/latex/base/ts1enc.dfu" 1544567569 4973 923be56c54607ca99f7cc085a8c7e52b ""
  "/usr/local/texlive/2019/texmf-dist/tex/latex/booktabs/booktabs.sty" 1462233275 5869 94335281ffcab47f341cf07ea8220e30 ""
  "/usr/local/texlive/2019/texmf-dist/tex/latex/caption/caption.sty" 1539032178 68576 86bbc6bd5a409b3c353fccc1a815fa5b ""
  "/usr/local/texlive/2019/texmf-dist/tex/latex/caption/caption3.sty" 1538606650 68510 943558eecf41da4e76fc614fd7f5deff ""
  "/usr/local/texlive/2019/texmf-dist/tex/latex/carlisle/scalefnt.sty" 1137109962 1360 df2086bf924b14b72d6121fe9502fcdb ""
  "/usr/local/texlive/2019/texmf-dist/tex/latex/environ/environ.sty" 1399239813 4378 f429f0da968c278653359293040a8f52 ""
  "/usr/local/texlive/2019/texmf-dist/tex/latex/eso-pic/eso-pic.sty" 1526160256 11991 c1669f88e13f8bb6243df144e456b477 ""
  "/usr/local/texlive/2019/texmf-dist/tex/latex/etoolbox/etoolbox.sty" 1534713891 43865 f83cc2fa3767abdb988c7d2cd17c02bf ""
  "/usr/local/texlive/2019/texmf-dist/tex/latex/fancyhdr/fancyhdr.sty" 1548974385 11128 a53805799bebfed6358fc1658a18e41f ""
  "/usr/local/texlive/2019/texmf-dist/tex/latex/geometry/geometry.sty" 1525727744 41645 0653033a985e06c69a2a9cea9a95e31a ""
  "/usr/local/texlive/2019/texmf-dist/tex/latex/graphics-cfg/color.cfg" 1459978653 1213 620bba36b25224fa9b7e1ccb4ecb76fd ""
  "/usr/local/texlive/2019/texmf-dist/tex/latex/graphics-cfg/graphics.cfg" 1465944070 1224 978390e9c2234eab29404bc21b268d1e ""
  "/usr/local/texlive/2019/texmf-dist/tex/latex/graphics-def/pdftex.def" 1515537368 17334 520b9b85ad8a2a48eda3f643e27a5179 ""
  "/usr/local/texlive/2019/texmf-dist/tex/latex/graphics/color.sty" 1523134385 7028 112f909feb676788e7ea1c5b0b76320f ""
  "/usr/local/texlive/2019/texmf-dist/tex/latex/graphics/graphics.sty" 1523134385 15272 5a97061616e0c8b2aa79c6615ff769f4 ""
  "/usr/local/texlive/2019/texmf-dist/tex/latex/graphics/graphicx.sty" 1523134385 9063 d0a305975932762117cd1f06a582f896 ""
  "/usr/local/texlive/2019/texmf-dist/tex/latex/graphics/keyval.sty" 1523134385 2591 6404d0c7d28505fb38ce0d86c2e28ae7 ""
  "/usr/local/texlive/2019/texmf-dist/tex/latex/graphics/trig.sty" 1523134385 3977 cb9221976ed8a183afad65b59aa8629a ""
  "/usr/local/texlive/2019/texmf-dist/tex/latex/hyperref/hpdftex.def" 1543704539 51744 477aad43ad6a7ba8c462d20c3e0808e0 ""
  "/usr/local/texlive/2019/texmf-dist/tex/latex/hyperref/hyperref.sty" 1543704539 236074 d994150943d35d6af0d586a60cc78dd1 ""
  "/usr/local/texlive/2019/texmf-dist/tex/latex/hyperref/nameref.sty" 1465687530 12949 81e4e808884a8f0e276b69410e234656 ""
  "/usr/local/texlive/2019/texmf-dist/tex/latex/hyperref/pd1enc.def" 1543704539 14098 b4e1ecab4699a0341b8e1349e4c53fb1 ""
  "/usr/local/texlive/2019/texmf-dist/tex/latex/kpfonts/kpfonts.sty" 1535061781 72676 4770f63c65b9d71d82e077ccaeb61bf9 ""
  "/usr/local/texlive/2019/texmf-dist/tex/latex/kpfonts/omljkp.fd" 1177460106 445 26f1bace35a25cdb94155b5fbf5a67d4 ""
  "/usr/local/texlive/2019/texmf-dist/tex/latex/kpfonts/omsjkp.fd" 1201048802 1616 7fef3748796a6ffce8f2ffd1956830e2 ""
  "/usr/local/texlive/2019/texmf-dist/tex/latex/kpfonts/omxjkp.fd" 1177460106 306 dd10f36111fcddf8bc82442f71d26f9f ""
  "/usr/local/texlive/2019/texmf-dist/tex/latex/kpfonts/ot1jkp.fd" 1221587958 1133 632cc5712ce26c7333f51ef610f28017 ""
  "/usr/local/texlive/2019/texmf-dist/tex/latex/kpfonts/ot1jkpss.fd" 1221587958 1203 8a70ec120e6ce21192d3050719324356 ""
  "/usr/local/texlive/2019/texmf-dist/tex/latex/kpfonts/ot1jkptt.fd" 1177460106 818 f86e58286fece055795f297a099853b4 ""
  "/usr/local/texlive/2019/texmf-dist/tex/latex/kpfonts/ujkpexa.fd" 1177460106 320 b222867dc9ceaccb99f5c780072d4c87 ""
  "/usr/local/texlive/2019/texmf-dist/tex/latex/kpfonts/ujkpmia.fd" 1177460106 326 2782e82a7edb148e7d8a2ffed10be5e5 ""
  "/usr/local/texlive/2019/texmf-dist/tex/latex/kpfonts/ujkpsya.fd" 1177460106 320 c2a3ea0a540207603e7e962d91e93c40 ""
  "/usr/local/texlive/2019/texmf-dist/tex/latex/kpfonts/ujkpsyb.fd" 1177460106 320 d2a1fadaa7dc48281828f735d4a584c9 ""
  "/usr/local/texlive/2019/texmf-dist/tex/latex/kpfonts/ujkpsyc.fd" 1177460106 320 8b7ec5275c6b1e5ed11702a65ef13eb9 ""
  "/usr/local/texlive/2019/texmf-dist/tex/latex/l3kernel/expl3-code.tex" 1557258869 991574 8b7565870250a7658dcde6c4ff0ce02b ""
  "/usr/local/texlive/2019/texmf-dist/tex/latex/l3kernel/expl3.sty" 1557258869 9894 5fcfbd505b33f7ebb4d0c166a863a8b6 ""
  "/usr/local/texlive/2019/texmf-dist/tex/latex/l3kernel/l3pdfmode.def" 1557258869 21257 26dd8561ccc206a222835055475c0b12 ""
  "/usr/local/texlive/2019/texmf-dist/tex/latex/l3packages/xparse/xparse.sty" 1556922606 81617 00424b5835d3059b1495f2efccecaf6c ""
  "/usr/local/texlive/2019/texmf-dist/tex/latex/latexconfig/epstopdf-sys.cfg" 1279039959 678 4792914a8f45be57bb98413425e4c7af ""
  "/usr/local/texlive/2019/texmf-dist/tex/latex/latexconfig/hyperref.cfg" 1254097189 235 6031e5765137be07eed51a510b2b8fb7 ""
  "/usr/local/texlive/2019/texmf-dist/tex/latex/listings/listings.cfg" 1551393442 1830 8ebf24b6078970a5f7b81814f96ef6bc ""
  "/usr/local/texlive/2019/texmf-dist/tex/latex/listings/listings.sty" 1551393442 80450 ccf6250c881393368e27f23b483782ab ""
  "/usr/local/texlive/2019/texmf-dist/tex/latex/listings/lstlang1.sty" 1551393442 204271 b2a47aa3eb69a0d1d582edd851ff8f19 ""
  "/usr/local/texlive/2019/texmf-dist/tex/latex/listings/lstmisc.sty" 1551393442 77022 9205b75844150972cc4077e78ec26b25 ""
  "/usr/local/texlive/2019/texmf-dist/tex/latex/ms/everyshi.sty" 1177890616 3878 6aa7c08ff2621006e0603349e40a30a8 ""
  "/usr/local/texlive/2019/texmf-dist/tex/latex/oberdiek/auxhook.sty" 1463608860 3834 4363110eb0ef1eb2b71c8fcbcdb6c357 ""
  "/usr/local/texlive/2019/texmf-dist/tex/latex/oberdiek/epstopdf-base.sty" 1463608860 12095 5337833c991d80788a43d3ce26bd1c46 ""
  "/usr/local/texlive/2019/texmf-dist/tex/latex/oberdiek/grfext.sty" 1463608860 7075 2fe3d848bba95f139de11ded085e74aa ""
  "/usr/local/texlive/2019/texmf-dist/tex/latex/oberdiek/kvoptions.sty" 1463608860 22417 1d9df1eb66848aa31b18a593099cf45c ""
  "/usr/local/texlive/2019/texmf-dist/tex/latex/oberdiek/listingsutf8.sty" 1463608860 5016 16c89aa2f0c0a9f50f7c446b2d6a60be ""
  "/usr/local/texlive/2019/texmf-dist/tex/latex/oberdiek/rerunfilecheck.sty" 1463608860 9581 023642318cef9f4677efe364de1e2a27 ""
  "/usr/local/texlive/2019/texmf-dist/tex/latex/paralist/paralist.sty" 1485124581 14857 82c76ebe8f06becf69ab309565b2a0cb ""
  "/usr/local/texlive/2019/texmf-dist/tex/latex/pgf/basiclayer/pgf.sty" 1546728038 1090 d20f587ea9464d1841bd0d13d3ff9856 ""
  "/usr/local/texlive/2019/texmf-dist/tex/latex/pgf/basiclayer/pgfcore.sty" 1288312291 410 5bf12ea7330e5f12c445332a4fe9a263 ""
  "/usr/local/texlive/2019/texmf-dist/tex/latex/pgf/compatibility/pgfcomp-version-0-65.sty" 1546728038 21013 e98e1aaaf40d31632787c2bd25d24b57 ""
  "/usr/local/texlive/2019/texmf-dist/tex/latex/pgf/compatibility/pgfcomp-version-1-18.sty" 1546728038 989 2cf3da8e8ec55131c49389428d565e37 ""
  "/usr/local/texlive/2019/texmf-dist/tex/latex/pgf/frontendlayer/tikz.sty" 1203877327 339 592cf35cba3d400082b8a9a5d0199d70 ""
  "/usr/local/texlive/2019/texmf-dist/tex/latex/pgf/math/pgfmath.sty" 1393459310 306 0796eafca5e159e6ec2167a6d22d81b1 ""
  "/usr/local/texlive/2019/texmf-dist/tex/latex/pgf/systemlayer/pgfsys.sty" 1393459310 443 0b2e781830192df35c0fd357cf13e26e ""
  "/usr/local/texlive/2019/texmf-dist/tex/latex/pgf/utilities/pgffor.sty" 1393459310 348 8927fde343487e003b01a4c2ca34073b ""
  "/usr/local/texlive/2019/texmf-dist/tex/latex/pgf/utilities/pgfkeys.sty" 1203727794 274 4cad6e665cc93ac2ac979039a94fa1e1 ""
  "/usr/local/texlive/2019/texmf-dist/tex/latex/pgf/utilities/pgfrcs.sty" 1203877327 325 2bcd023400636339210573e2b3ee298b ""
  "/usr/local/texlive/2019/texmf-dist/tex/latex/subfig/subfig.sty" 1158586182 21369 9ef165ca6df8815c92e693146a376c92 ""
  "/usr/local/texlive/2019/texmf-dist/tex/latex/tcolorbox/tcbbreakable.code.tex" 1551564666 33368 d96db65433693482efc192dd3fb11345 ""
  "/usr/local/texlive/2019/texmf-dist/tex/latex/tcolorbox/tcbexternal.code.tex" 1551564666 9002 40bed6cc92b21f8608e41df50d8efe75 ""
  "/usr/local/texlive/2019/texmf-dist/tex/latex/tcolorbox/tcbfitting.code.tex" 1551564666 14602 e3f22556775e42123ed9d4481ed4cc52 ""
  "/usr/local/texlive/2019/texmf-dist/tex/latex/tcolorbox/tcbhooks.code.tex" 1551564666 7824 f5994555d3a8393f99683204054a221e ""
  "/usr/local/texlive/2019/texmf-dist/tex/latex/tcolorbox/tcblistings.code.tex" 1551564666 3412 7f45b8d6d782ba6373f1f6548324b5f4 ""
  "/usr/local/texlive/2019/texmf-dist/tex/latex/tcolorbox/tcblistingscore.code.tex" 1551564666 13905 e8c7234d5f15aa8424b138ee3ae096d9 ""
  "/usr/local/texlive/2019/texmf-dist/tex/latex/tcolorbox/tcblistingsutf8.code.tex" 1551564666 1190 301bff64354633fc0b695532e7b95458 ""
  "/usr/local/texlive/2019/texmf-dist/tex/latex/tcolorbox/tcbmagazine.code.tex" 1551564666 5630 95137376cde43bbb166904a6c9204b8f ""
  "/usr/local/texlive/2019/texmf-dist/tex/latex/tcolorbox/tcbposter.code.tex" 1551564666 12451 d948a6fafb7290cb758afc0796c0711c ""
  "/usr/local/texlive/2019/texmf-dist/tex/latex/tcolorbox/tcbprocessing.code.tex" 1551564666 2564 255830cffb0473025c58e2e46c08cef7 ""
  "/usr/local/texlive/2019/texmf-dist/tex/latex/tcolorbox/tcbraster.code.tex" 1551564666 8920 e372e8de2a01f058136ffa9d284eac7b ""
  "/usr/local/texlive/2019/texmf-dist/tex/latex/tcolorbox/tcbskins.code.tex" 1551564666 84989 23499a3d031e84a3ab93f981996b9ba5 ""
  "/usr/local/texlive/2019/texmf-dist/tex/latex/tcolorbox/tcbskinsjigsaw.code.tex" 1551564666 9020 dce52a9aa3fa9da11fc82ad7d2079f29 ""
  "/usr/local/texlive/2019/texmf-dist/tex/latex/tcolorbox/tcbtheorems.code.tex" 1551564666 8512 c991b830047e65645d7a4ce0d177438e ""
  "/usr/local/texlive/2019/texmf-dist/tex/latex/tcolorbox/tcbvignette.code.tex" 1551564666 12745 eac7d30575934746d8ff6a1d47da0d69 ""
  "/usr/local/texlive/2019/texmf-dist/tex/latex/tcolorbox/tcbxparse.code.tex" 1551564666 9627 4b775f37b023dad79b6a9dd8c46a65d4 ""
  "/usr/local/texlive/2019/texmf-dist/tex/latex/tcolorbox/tcolorbox.sty" 1551564666 84345 817ca8055f3180a3c1fe5c8c7bd6d10c ""
  "/usr/local/texlive/2019/texmf-dist/tex/latex/titlesec/titlesec.sty" 1458858524 37387 afa86533e532701faf233f3f592c61e0 ""
  "/usr/local/texlive/2019/texmf-dist/tex/latex/tools/array.sty" 1546812253 12527 31ab547f6520657998ecf91709f950ac ""
  "/usr/local/texlive/2019/texmf-dist/tex/latex/tools/calc.sty" 1523050425 10212 357072c1d20578a30d6387d8a22e72ab ""
  "/usr/local/texlive/2019/texmf-dist/tex/latex/tools/multicol.sty" 1546812253 30849 03c22687ffd5fa0f72f2a417c6cf4ce1 ""
  "/usr/local/texlive/2019/texmf-dist/tex/latex/tools/shellesc.sty" 1523050425 3268 77605a04b5525f60d58f55c47c0771c5 ""
  "/usr/local/texlive/2019/texmf-dist/tex/latex/tools/verbatim.sty" 1523050425 7262 cf84171354dfa1855684c0946ff000f1 ""
  "/usr/local/texlive/2019/texmf-dist/tex/latex/trimspaces/trimspaces.sty" 1253232110 1380 971a51b00a14503ddf754cab24c3f209 ""
  "/usr/local/texlive/2019/texmf-dist/tex/latex/url/url.sty" 1388531844 12796 8edb7d69a20b857904dd0ea757c14ec9 ""
  "/usr/local/texlive/2019/texmf-dist/tex/latex/wallpaper/wallpaper.sty" 1161102852 6919 f87ec89c767393dfb3b9adfd163539b0 ""
  "/usr/local/texlive/2019/texmf-dist/tex/latex/xcolor/svgnam.def" 1463002160 4620 ef4794ae13f75d0c199ba494bc41ff4b ""
  "/usr/local/texlive/2019/texmf-dist/tex/latex/xcolor/x11nam.def" 1463002160 9040 8a9e316ccf1f74e192adb7eb7f3d0f07 ""
  "/usr/local/texlive/2019/texmf-dist/tex/latex/xcolor/xcolor.sty" 1463002160 55589 34128738f682d033422ca125f82e5d62 ""
  "/usr/local/texlive/2019/texmf-dist/web2c/texmf.cnf" 1557092114 35484 cb1661360667bf4db662a8895053b554 ""
  "/usr/local/texlive/2019/texmf-var/fonts/map/pdftex/updmap/pdftex.map" 1557342064 3277517 23507ed665b4dd9046f0f2a94bbef2be ""
  "/usr/local/texlive/2019/texmf-var/web2c/pdftex/pdflatex.fmt" 1557342086 4259635 562fc36ec496993777a6c428d8bfb811 ""
  "/usr/local/texlive/2019/texmf.cnf" 1557341546 577 d150fef99ac436ad1156e86b0892f6ef ""
  "TDTPwebGL.aux" 1706802905 6401 c7d24acc956e1511ee824e55da7920de "pdflatex"
  "TDTPwebGL.out" 1706802905 574 f05b5661b12301f7a8dbfacbef6fdb23 "pdflatex"
  "TDTPwebGL.tex" 1737975053 74288 79cc47a2ae9ace7a8f206ca06654a6ec ""
  "TDTPwebGL.toc" 1706802905 994 3614b003c705ac0686ffc25ad93cc145 "pdflatex"
  "dessin.png" 1372080165 10210 1de4822a57db0679a668b6bfd118fe71 ""
  "fig/DB1.png" 1470381481 15457 517f2c6ebe4025b10384aa46bb5322ed ""
  "fig/DB2.png" 1470381523 14839 a1bb0669edd526307b6c0d193dca3012 ""
  "fig/DB3.jpg" 1470381541 29016 7639e99b8b84ce923244ff2502339cf6 ""
  "fig/DB4.jpg" 1470381567 25465 57b5b9c832f872f0dd05ed277da93857 ""
  "fig/Picture1.png" 1519660916 52617 ffb8f066e5e3e0255beeb9a4ac7661c2 ""
  "fig/Picture2.png" 1519661021 5698 b0a8f557d359f78b172742afddb4c00a ""
  "fig/Picture3.png" 1519661029 4990 624032bef73af210057cc46f1389c35b ""
  "fig/Picture4.png" 1519661038 5098 256c50d04b74eb6d643a56e0a91d5f96 ""
  "fig/billes.png" 1583764991 518093 32554a2d4f8de9ffe3842b031a66ebef ""
  "fig/billes2.png" 1583766805 467201 201dd80b7a58e271f8598ccd63588f02 ""
  "fig/carre.jpg" 1456327393 176585 83372e397e7796c6a61ed2a9afb727fd ""
  "fig/colorCube.png" 1580384044 4482 8b3d74946f0e9a9a4e4e9be9ea37c23f ""
  "fig/colorCube3.png" 1580395959 144961 fbe8bf332d9a38f06d877430f54da025 ""
  "fig/exo1-1.png" 1470323774 102799 29adae95f7b255ba4183aa65a383f923 ""
  "fig/exo1-2.png" 1470324301 23306 cd17e0e14ec0a5f6f427881ac3162aa1 ""
  "fig/exo1-3.png" 1470324632 23100 aa8f8a005918b0ec618901ce718e2ef5 ""
  "fig/exo1-4.png" 1470325534 22150 fd21952d178f7737b358ad2b207a7d07 ""
  "fig/exo1-5.png" 1470325948 20814 4e6353617a16d46eb68aa3ce2064d181 ""
  "fig/exo1-6.png" 1470326181 23638 f7f7959e5351c1a83e3677df5876fa20 ""
  "fig/exo1-7.png" 1470381184 38748 1084656e06aee16e9c5a283ef45b5dc5 ""
  "fig/exo1-8.png" 1470383078 39815 22b4adb223eaf4f4dc193503018afb59 ""
  "fig/exo1-9a.png" 1515599966 114108 955f8920a258fd6b5df50ff3b6dcc4a9 ""
  "fig/exo1-9b.png" 1515602333 206619 53eb089e564d4828037a78450da6dd3a ""
  "fig/exo2-1.png" 1478703806 81895 7b127e5a9dec68c2e821bc811c07360e ""
  "fig/exo2-2.png" 1478704440 46409 774f988657e9f5768325b3fe11680402 ""
  "fig/exo2-3.png" 1478704040 87791 589e6d8729905f661d725877ea13fef1 ""
  "fig/exo2-4.png" 1478703374 38288 2a12ba8ceea989419af5ee7da759f167 ""
  "fig/exo2-5.png" 1478703709 31526 4ab2080ec35598ee4f258e29cdea43e9 ""
  "fig/exo3-1.png" 1478774728 17635 8b1dab51a815c5613fdd850d63b07908 ""
  "fig/exo3-10.png" 1517826248 65288 766cd37ea518256b9ec95b136135e1cc ""
  "fig/exo3-11.png" 1517825931 48099 ec16180dbb5d445743d9bf84ad71121c ""
  "fig/exo3-2.png" 1478774843 20738 6cbaeabb59b759aa985b694e8249b346 ""
  "fig/exo3-3.png" 1478775745 28236 c551333924b862c1d9aa34209ea09a6b ""
  "fig/exo3-4.png" 1478775013 48916 89ca61203be7aeb30761b68a1848d50f ""
  "fig/exo3-5.png" 1478776080 89795 3841cc764c92eeae774d3c9e2c55a8e9 ""
  "fig/exo3-6.png" 1478776424 49300 8b591cdc486bc0bfc7ec380dfa843608 ""
  "fig/exo3-7.png" 1478776522 58298 839d2d0be90b5be1d8df283d37fdd4ee ""
  "fig/exo3-8.png" 1478776628 57713 b3147d48eac67d15952279ccda39addc ""
  "fig/exo3-9.png" 1517826230 34263 4286ff86d069a33bd3c1b4aa326624e3 ""
  "fig/exo4-1.png" 1478784882 52456 48531a4db67031bbdd6e20384ac8cb5b ""
  "fig/exo4-2.png" 1478788270 101044 0737fd3caf914474a1030b8448793984 ""
  "fig/exo4-3.png" 1478788419 59717 13eff06c08dbb16b72f686fb93426313 ""
  "fig/exo4-4.png" 1478788520 144158 180f8f031f39142c555059a3fabd840b ""
  "fig/exo4-5.png" 1478790037 67049 268c9f692f0989bdd17a9ffe9a6c7364 ""
  "fig/exo5-1.png" 1478795179 49915 83585c87de557fb17bc1abb8b980d8a5 ""
  "fig/exo5-2.png" 1478795326 56997 97da817fdf23213dcdbf903706ba8b41 ""
  "fig/exo5-3.png" 1478795454 78858 e5c292e66fd8d112d40b0f53638cb55c ""
  "fig/exo5-4.png" 1478795643 101825 0f521d8b63935494b4d0fb55c0d7856f ""
  "fig/exo5-5.png" 1479893146 108429 c12f4db5b5f01dc052536075282b1593 ""
  "fig/exo5-6.png" 1479893928 105134 1a1561ae5b1fbdebf5b92738115addcc ""
  "fig/exo5-6a.png" 1479893257 102050 6087c41b640771def7652eb84cdc55a9 ""
  "fig/exo5-7.png" 1518192405 150178 11aeb696034948e4efa8e1f4d7b884af ""
  "fig/exo5-8.png" 1518193294 73842 8235324f7b79f75a9b8931b93eac4d8e ""
  "fig/exo6-1.png" 1479894759 51055 d13ca3bdc3340b403d374289b207a5a5 ""
  "fig/exo6-2.png" 1479897745 146131 e9ce5596f8b75686ac38bf8494e6b422 ""
  "fig/exo6-3.png" 1479898835 56051 b812bf1dc49359fc82099ebb7ae2e930 ""
  "fig/exo6-4.png" 1479907552 117414 1ab8752b8952c1f76222747327cdfd38 ""
  "fig/exo6-5.png" 1518197854 142491 1245b22430144c2616ad3dfb4b78e2a3 ""
  "fig/exo6-5b.png" 1518429047 87285 e68d612343c51a6229b4dbb6bd1f0103 ""
  "fig/exo7-1.png" 1480500952 72792 e301c7b2d6fa28e1edec3e0356e81c70 ""
  "fig/exo7-1b.png" 1480501271 76724 d6a4ce268bbf1ab96c9cb4fcaf2ce87c ""
  "fig/exo7-2.png" 1480513690 513238 dd640407419f183c18ec41fe49cb07ac ""
  "fig/exo7-3.png" 1480515529 15239 00ca62b793c0cc94762fbff52bc23f9c ""
  "fig/exo7-4.png" 1480517439 779595 df6d345954f8641682d1382d6bbdcdfa ""
  "fig/exo7-4b.png" 1480517590 745597 ca1d848b57793e8d471f51660018be92 ""
  "fig/exo7-4c.png" 1480587149 333875 24554f57324069d6644b282b6bba0ebf ""
  "fig/exo7-5.png" 1480521369 94605 042ccc430beeec083c2d1059c2b0087d ""
  "fig/exo7-5b.png" 1480521725 155746 c2367f480965acd9f9ab83bf5092d5cb ""
  "fig/exo7-6.png" 1480522100 33072 486fca9f02e997252922385d053bc816 ""
  "fig/exo7-7.png" 1480522539 327615 40a8236822d0d28947f531d7a5d8959a ""
  "fig/exo7-7c.png" 1480583367 432040 31056f68e82dfb1f0e3f8e9a926e86dc ""
  "fig/exo7-7d.png" 1480585708 411934 4a3f56de69d43381a02ab68c556f590e ""
  "fig/exo7-8a.png" 1518628840 205947 d558e041887f8232be3ab1522f2eb20e ""
  "fig/exo7-8b.png" 1518696340 598607 b5b3324aea8fe38983f1e8428d856b4b ""
  "fig/exo7-9a.png" 1518430891 254122 9ef58c1fb2c07a1606cb1557dfd73c63 ""
  "fig/exo7-9b.png" 1518703308 457629 91fe67a5140d034f74ab7003021597f2 ""
  "fig/exo7-9c.png" 1518703371 484118 6db10521c9866824cfd3964ccba49b8c ""
  "fig/exo8-1.png" 1480588199 39131 2ce3a58e2ad0b7d84eb18eee40e82d3d ""
  "fig/exo8-1b.png" 1480588419 26137 7599e0c70f765fe8802c0645a2dd9f89 ""
  "fig/exo8-2.png" 1480588871 249229 2a2de838a50beab1bf9f3d31c263cfad ""
  "fig/exo8-2b.png" 1480589195 261726 2643ef528c3bd363770f1952e93e3fcb ""
  "fig/exo8-3.png" 1480589549 250442 00e7741f74c19ca7cf9adadb8f4e6a7f ""
  "fig/exo8-3b.png" 1480596949 103387 c4f3771ebbc5cb6bfb78bd263e0a70d9 ""
  "fig/exo8-4.png" 1480597768 152751 c566db443f6bdcaa02f133ad2bc6150f ""
  "fig/exo8-5.png" 1480598967 23818 b01e6a035f6c093a847346e096521614 ""
  "fig/exo8-6.png" 1480603579 17510 44d29994c49a76a553317dc766ab90bb ""
  "fig/exo8-6a.png" 1480928685 25027 c9c8a01c9591b59026d583a64501317a ""
  "fig/exo8-6b.png" 1480603991 91672 cdadff6176ac4be52d184bd225e8774c ""
  "fig/exo8-6c.png" 1480605063 101844 d2af273e51fb9433a06a1ba50dd0cf5a ""
  "fig/exo8-7.png" 1480605287 73555 23d58babfc0d111138a8cb1ca609ca17 ""
  "fig/exo8-7a.png" 1519405268 173024 65f3b0b0c41b9e4793fcc388aa3a633e ""
  "fig/exo8-7b.png" 1519405314 235746 a9a1fe9dc479dc7906a4b72a4498ae9d ""
  "fig/exo8-8.png" 1480605961 89944 7125a2f406b34a16d62cfe07dbb22a72 ""
  "fig/exo8-81.png" 1519655317 225394 380de36a026465896457486d3246631c ""
  "fig/exo8-82.png" 1519655534 83990 29ef411d3da9819c0fc3cfc525f7d11a ""
  "fig/exo8-8b.png" 1480605948 110963 3ef1c17ee94f4f67fae43e9e4025e6fd ""
  "fig/exo9-1.png" 1480932825 108530 bbc129496788167a829e8c7d5224fb3c ""
  "fig/exo9-2.png" 1519805482 456783 9a83135d432de6d5d0e212be4b8765a2 ""
  "fig/exo9-5.png" 1519829853 754946 307152ee4c3a7b27629f27dfd316058a ""
  "fig/exo9-6.png" 1606211654 1080414 c89ade18880adbdf5c3162ea2c3ad13b ""
  "fig/matlab.jpg" 1456416594 31556 e033fedbc9c58831ed619673aac951f6 ""
  "fig/ptsFuite.pdf" 1456416495 13639 294e2a9b6863895bea4850766e30fce0 ""
  "fig/repere.pdf" 1456321626 12030 320b26537be416b6022279233342b261 ""
  "fig/sphere2.pdf" 1580825327 69549 e8d1c8954bfb5a47e2a3fe86fa613ee4 ""
  "fig/stairs.pdf" 1470380372 58919 031b4428183cde13742ebb455d7f720d ""
  "fig/unsullied1.png" 1580811472 13768 527d4c026e97aa9a7f28d95d31c31c14 ""
  "fig/unsullied2.png" 1580811523 381073 f048b5f303539a71439f700bb3503d5d ""
  "fig/unsullied3.png" 1580814405 166019 4ff19cc8dbb44e1491a8c414ba457da5 ""
  "fig/unsullied4.png" 1580814545 121347 fca13ecbb96f6efeac7dddd921fc83a9 ""
  "fig/unsullied5.png" 1580814610 452528 09d1fe8bd276b66b1c4397b1d8c713fe ""
  "fig/untitled.pdf" 1519660958 15989 8fe9db1e897a6de07828e708c5572820 ""
  "fig/untitled2.pdf" 1519661061 22588 c1c65a2e4b9dbfd297467fb6384e2bcb ""
  "fig/untitled3.pdf" 1519661084 21129 73e11d0eae989f006368d443516415f8 ""
  "fig/verif.jpg" 1456481012 207179 c1a171d38d8300ab11a6ac1b55ec4b7c ""
  "logo.png" 1182176230 14815 6cecdd10db9b02bdbdc4294d933351ff ""
  (generated)
  "TDTPwebGL.aux"
  "TDTPwebGL.out"
  "TDTPwebGL.pdf"
  "TDTPwebGL.toc"
  "TDTPwebGL.log"
  "/Users/villardp/GitLab/cours/webgl/Exercices/sujetWebGL/TDTPwebGL.pdf"
  "/Users/villardp/GitLab/cours/webgl/Exercices/sujetWebGL/TDTPwebGL.log"
