\relax 
\providecommand\hyper@newdestlabel[2]{}
\catcode `:\active 
\catcode `;\active 
\catcode `!\active 
\catcode `?\active 
\providecommand\HyperFirstAtBeginDocument{\AtBeginDocument}
\HyperFirstAtBeginDocument{\ifx\hyper@anchor\@undefined
\global\let\oldcontentsline\contentsline
\gdef\contentsline#1#2#3#4{\oldcontentsline{#1}{#2}{#3}}
\global\let\oldnewlabel\newlabel
\gdef\newlabel#1#2{\newlabelxx{#1}#2}
\gdef\newlabelxx#1#2#3#4#5#6{\oldnewlabel{#1}{{#2}{#3}}}
\AtEndDocument{\ifx\hyper@anchor\@undefined
\let\contentsline\oldcontentsline
\let\newlabel\oldnewlabel
\fi}
\fi}
\global\let\hyper@last\relax 
\gdef\HyperFirstAtBeginDocument#1{#1}
\providecommand\HyField@AuxAddToFields[1]{}
\providecommand\HyField@AuxAddToCoFields[2]{}
\babel@aux{french}{}
\pgfsyspdfmark {pgfid2}{0}{49786951}
\pgfsyspdfmark {pgfid1}{3729359}{45687855}
\@writefile{toc}{\contentsline {chapter}{\numberline {1}Fonctionnement des TD/TP}{5}{chapter.1}\protected@file@percent }
\@writefile{lof}{\addvspace {10\p@ }}
\@writefile{lot}{\addvspace {10\p@ }}
\pgfsyspdfmark {pgfid4}{0}{49786951}
\pgfsyspdfmark {pgfid3}{3729359}{45454202}
\@writefile{toc}{\contentsline {chapter}{\numberline {2}Points, vecteurs et maillage}{7}{chapter.2}\protected@file@percent }
\@writefile{lof}{\addvspace {10\p@ }}
\@writefile{lot}{\addvspace {10\p@ }}
\pgfsyspdfmark {pgfid6}{0}{49786951}
\pgfsyspdfmark {pgfid5}{3729359}{45664953}
\@writefile{lof}{\contentsline {figure}{\numberline {2.1}{\ignorespaces Description des triangles de la plaque\relax }}{12}{figure.caption.2}\protected@file@percent }
\providecommand*\caption@xref[2]{\@setref\relax\@undefined{#1}}
\newlabel{fig1}{{2.1}{12}{Description des triangles de la plaque\relax }{figure.caption.2}{}}
\@writefile{lof}{\contentsline {figure}{\numberline {2.2}{\ignorespaces Cylindres avec N=4, N=8 et N =20\relax }}{13}{figure.caption.3}\protected@file@percent }
\newlabel{fig2}{{2.2}{13}{Cylindres avec N=4, N=8 et N =20\relax }{figure.caption.3}{}}
\@writefile{lof}{\contentsline {figure}{\numberline {2.3}{\ignorespaces Description des triangles de la plaque\relax }}{13}{figure.caption.4}\protected@file@percent }
\newlabel{fig3}{{2.3}{13}{Description des triangles de la plaque\relax }{figure.caption.4}{}}
\@writefile{lof}{\contentsline {figure}{\numberline {2.4}{\ignorespaces Description des triangles de la plaque\relax }}{13}{figure.caption.5}\protected@file@percent }
\newlabel{fig4}{{2.4}{13}{Description des triangles de la plaque\relax }{figure.caption.5}{}}
\@writefile{toc}{\contentsline {chapter}{\numberline {3}Les couleurs et mat\IeC {\'e}riaux}{15}{chapter.3}\protected@file@percent }
\@writefile{lof}{\addvspace {10\p@ }}
\@writefile{lot}{\addvspace {10\p@ }}
\pgfsyspdfmark {pgfid8}{0}{49786951}
\pgfsyspdfmark {pgfid7}{3729359}{45687855}
\newlabel{diffus}{{3.1}{15}{}{equation.3.0.1}{}}
\@writefile{toc}{\contentsline {chapter}{\numberline {4}Les transformations}{19}{chapter.4}\protected@file@percent }
\@writefile{lof}{\addvspace {10\p@ }}
\@writefile{lot}{\addvspace {10\p@ }}
\pgfsyspdfmark {pgfid10}{0}{49786951}
\pgfsyspdfmark {pgfid9}{3729359}{45621240}
\@writefile{toc}{\contentsline {chapter}{\numberline {5}Les matrices}{25}{chapter.5}\protected@file@percent }
\@writefile{lof}{\addvspace {10\p@ }}
\@writefile{lot}{\addvspace {10\p@ }}
\pgfsyspdfmark {pgfid12}{0}{49786951}
\pgfsyspdfmark {pgfid11}{3729359}{45677244}
\@writefile{lof}{\contentsline {figure}{\numberline {5.1}{\ignorespaces Passage d'un rep\IeC {\`e}re image \IeC {\`a} un rep\IeC {\`e}re dans le monde r\IeC {\'e}el\relax }}{28}{figure.caption.6}\protected@file@percent }
\newlabel{repere}{{5.1}{28}{Passage d'un repère image à un repère dans le monde réel\relax }{figure.caption.6}{}}
\@writefile{lof}{\contentsline {figure}{\numberline {5.2}{\ignorespaces Dessin des points sur l'image\relax }}{29}{figure.caption.7}\protected@file@percent }
\newlabel{pointsImage}{{5.2}{29}{Dessin des points sur l'image\relax }{figure.caption.7}{}}
\@writefile{lof}{\contentsline {figure}{\numberline {5.3}{\ignorespaces Point de fuite d'un rectangle s\IeC {\'e}lectionn\IeC {\'e}. a) th\IeC {\'e}orie b) exemple\relax }}{30}{figure.caption.8}\protected@file@percent }
\newlabel{ptsFuite}{{5.3}{30}{Point de fuite d'un rectangle sélectionné. a) théorie b) exemple\relax }{figure.caption.8}{}}
\@writefile{lof}{\contentsline {figure}{\numberline {5.4}{\ignorespaces V\IeC {\'e}rification de la projection\relax }}{31}{figure.caption.9}\protected@file@percent }
\newlabel{verif}{{5.4}{31}{Vérification de la projection\relax }{figure.caption.9}{}}
\@writefile{toc}{\contentsline {chapter}{\numberline {6}L'\IeC {\'e}clairage}{33}{chapter.6}\protected@file@percent }
\@writefile{lof}{\addvspace {10\p@ }}
\@writefile{lot}{\addvspace {10\p@ }}
\pgfsyspdfmark {pgfid14}{0}{49786951}
\pgfsyspdfmark {pgfid13}{3729359}{45496885}
\@writefile{toc}{\contentsline {chapter}{\numberline {7}Le point de vue}{39}{chapter.7}\protected@file@percent }
\@writefile{lof}{\addvspace {10\p@ }}
\@writefile{lot}{\addvspace {10\p@ }}
\pgfsyspdfmark {pgfid16}{0}{49786951}
\pgfsyspdfmark {pgfid15}{3729359}{45687855}
\@writefile{toc}{\contentsline {chapter}{\numberline {8}Les textures}{43}{chapter.8}\protected@file@percent }
\@writefile{lof}{\addvspace {10\p@ }}
\@writefile{lot}{\addvspace {10\p@ }}
\pgfsyspdfmark {pgfid18}{0}{49786951}
\pgfsyspdfmark {pgfid17}{3729359}{45526502}
\@writefile{toc}{\contentsline {subsubsection}{Passage de nuage}{46}{Item.44}\protected@file@percent }
\@writefile{toc}{\contentsline {subsubsection}{Temp\IeC {\^e}te de neige}{47}{Item.51}\protected@file@percent }
\@writefile{toc}{\contentsline {chapter}{\numberline {9}Les shaders}{51}{chapter.9}\protected@file@percent }
\@writefile{lof}{\addvspace {10\p@ }}
\@writefile{lot}{\addvspace {10\p@ }}
\pgfsyspdfmark {pgfid20}{0}{49786951}
\pgfsyspdfmark {pgfid19}{3729359}{45605754}
\@writefile{toc}{\contentsline {chapter}{\numberline {10}Les interactions}{59}{chapter.10}\protected@file@percent }
\@writefile{lof}{\addvspace {10\p@ }}
\@writefile{lot}{\addvspace {10\p@ }}
\pgfsyspdfmark {pgfid23}{0}{49786951}
\pgfsyspdfmark {pgfid22}{3729359}{45687855}
\@writefile{toc}{\contentsline {chapter}{\numberline {11}Annexe}{63}{chapter.11}\protected@file@percent }
\@writefile{lof}{\addvspace {10\p@ }}
\@writefile{lot}{\addvspace {10\p@ }}
\pgfsyspdfmark {pgfid25}{0}{49786951}
\pgfsyspdfmark {pgfid24}{3729359}{45687855}
