\relax 
\providecommand\hyper@newdestlabel[2]{}
\catcode `:\active 
\catcode `;\active 
\catcode `!\active 
\catcode `?\active 
\providecommand\HyperFirstAtBeginDocument{\AtBeginDocument}
\HyperFirstAtBeginDocument{\ifx\hyper@anchor\@undefined
\global\let\oldcontentsline\contentsline
\gdef\contentsline#1#2#3#4{\oldcontentsline{#1}{#2}{#3}}
\global\let\oldnewlabel\newlabel
\gdef\newlabel#1#2{\newlabelxx{#1}#2}
\gdef\newlabelxx#1#2#3#4#5#6{\oldnewlabel{#1}{{#2}{#3}}}
\AtEndDocument{\ifx\hyper@anchor\@undefined
\let\contentsline\oldcontentsline
\let\newlabel\oldnewlabel
\fi}
\fi}
\global\let\hyper@last\relax 
\gdef\HyperFirstAtBeginDocument#1{#1}
\providecommand\HyField@AuxAddToFields[1]{}
\providecommand\HyField@AuxAddToCoFields[2]{}
\babel@aux{french}{}
\@writefile{toc}{\contentsline {section}{\color  {greenIUT} \bf  Points, vecteurs et maillage}{1}{section*.1}\protected@file@percent }
\@writefile{toc}{\contentsline {section}{\color  {greenIUT} \bf  Les couleurs et mat\IeC {\'e}riaux}{1}{section*.2}\protected@file@percent }
\@writefile{toc}{\contentsline {section}{\color  {greenIUT} \bf  Les transformations}{1}{section*.3}\protected@file@percent }
\@writefile{toc}{\contentsline {section}{\color  {greenIUT} \bf  Les matrices}{1}{section*.4}\protected@file@percent }
\@writefile{toc}{\contentsline {section}{\color  {greenIUT} \bf  L'\IeC {\'e}clairage}{2}{section*.5}\protected@file@percent }
\@writefile{toc}{\contentsline {section}{\color  {greenIUT} \bf  Le point de vue}{2}{section*.6}\protected@file@percent }
\@writefile{toc}{\contentsline {section}{\color  {greenIUT} \bf  Les textures}{3}{section*.7}\protected@file@percent }
\@writefile{toc}{\contentsline {section}{\color  {greenIUT} \bf  Les shaders}{3}{section*.8}\protected@file@percent }
\@writefile{toc}{\contentsline {section}{\color  {greenIUT} \bf  Les interactions}{4}{section*.9}\protected@file@percent }
