1
00:00:00,190 --> 00:00:03,403
The depths of objects in the scene are stored in the shadow map. This image is

2
00:00:03,403 --> 00:00:07,638
most like a regular scene z-buffer, which stores the distances to objects. On

3
00:00:07,638 --> 00:00:10,410
the left is an example of the shadow buffer's stored depths with black being

4
00:00:10,410 --> 00:00:14,130
closer to the light. On the right, this shadow map is used to detect from the

5
00:00:14,130 --> 00:00:17,409
camera's view which pixels are in shadow and which are in light.

